Extract Past Sales Data from Allhomes.com.au • allhomes
…
# install.packages("remotes")
remotes::install_github("mevers/allhomes")

(Note: The package is no longer available on CRAN.)

Usage

The main function is get_past_sales_data(), which extracts past sales data for a given suburb and year.

library(allhomes)

# Get sales data for Balmain, NSW in 2019
sales <- get_past_sales_data("Balmain, NSW", 2019)
sales
## A tibble: 286 × 22
#   contract_date address     division state postcode url   property_type purpose bedrooms bathrooms parking building_size block_size
#   <date>        <chr>       <chr>    <chr> <chr>    <chr> <chr>         <chr>      <int>     <int>   <int> <lgl>              <int>
# 1 2019-11-16    2 Adolphus… Balmain  NSW   2041     http… NA            "RESID…       NA        NA      NA NA                   234
# 2 NA            1 Wisbeach… Balmain  NSW   2041     http… HOUSE          NA            1         1       0 NA                    NA
# 3 2019-11-19    75/24 Buch… Balmain  NSW   2041     http… NA            "RESID…       NA        NA      NA NA                    NA
# 4 2019-12-23    73-79 Beat… Balmain  NSW   2041     http… NA            "RESID…       NA        NA      NA NA                   278
# 5 2019-10-24    4 Gladston… Balmain  NSW   2041     http… HOUSE         "RESID…        2         1       0 NA                    87
# 6 2019-11-07    128/85 Rey… Balmain  NSW   2041     http… NA            "RESID…       NA        NA      NA NA                    NA
# 7 2019-11-01    21 Phillip… Balmain  NSW   2041     http… HOUSE         "RESID…        2         2       0 NA                   127
# 8 2019-11-24    43 Beattie… Balmain  NSW   2041     http… NA            "RESID…       NA        NA      NA NA                   133
# 9 NA            491 Darlin… Balmain  NSW   2041     http… NA            ""            NA        NA      NA NA                   118
#10 2019-11-15    26 Little … Balmain  NSW   2041     http… NA            "RESID…       NA        NA      NA NA                   126
## ℹ 276 more rows
## ℹ 9 more variables: eer <int>, list_date <date>, transfer_date <date>, days_on_market <int>, label <chr>, price <int>,
##   agent <chr>, unimproved_value <int>, unimproved_value_ratio <dbl>
## ℹ Use `print(n = ...)` to see more rows
…
