…
The function `get_past_sales_data()` takes the following two arguments:

- `suburb`: This is a `character` vector denoting a (or multiple) suburbs. Every entry must be of the form "suburb_name, state/territory_abbreviation", e.g. "Balmain, NSW".
- `year`: This is an `numeric` or `integer` vector of the the year(s) of the sales history.

Example:

```r
get_past_sales_data("Balmain, NSW", 2019) %>% print(width = 100)
#[2022-07-27 14:52:47] Looking up division ID for suburb='Balmain, NSW'...
#[2022-07-27 14:52:47] URL: https://www.allhomes.com.au/svc/locality/searchallbyname?st=NSW&n=balmain
#[2022-07-27 14:52:47] Finding data for ID=7857, year=2019...
#[2022-07-27 14:52:47] URL: https://www.allhomes.com.au/ah/research/_/120785712/sale-history?year=2019
#[2022-07-27 14:52:48] Found 229 entries.
## A tibble: 229 × 27
#   divis…¹ state postc…² value  year address bedro…³ bathr…⁴ ensui…⁵ garages carpo…⁶ contr…⁷ trans…⁸
#   <chr>   <chr> <chr>   <int> <dbl> <chr>     <dbl>   <dbl> <lgl>     <dbl> <lgl>   <chr>   <chr>  
# 1 Balmain NSW   2041     7857  2019 1 Long…      NA      NA NA           NA NA      06/12/… 02/04/…
# 2 Balmain NSW   2041     7857  2019 7 Alex…      NA      NA NA           NA NA      30/08/… 16/10/…
# 3 Balmain NSW   2041     7857  2019 29 Bir…      NA      NA NA           NA NA      25/10/… 06/12/…
# 4 Balmain NSW   2041     7857  2019 2 Well…       6       3 NA            4 NA      25/05/… 26/08/…
# 5 Balmain NSW   2041     7857  2019 109 Mo…       4       2 NA            2 NA      25/02/… 08/04/…
# 6 Balmain NSW   2041     7857  2019 10 Tha…       4       2 NA            4 NA      05/10/… 16/12/…
# 7 Balmain NSW   2041     7857  2019 3/100 …      NA      NA NA           NA NA      18/07/… 06/09/…
# 8 Balmain NSW   2041     7857  2019 160 Be…       5       4 NA            1 NA      18/10/… 13/12/…
# 9 Balmain NSW   2041     7857  2019 25 Isa…      NA      NA NA           NA NA      01/05/… 02/09/…
#10 Balmain NSW   2041     7857  2019 71 Mor…       4       2 NA            2 NA      24/05/… 05/07/…
## … with 219 more rows, 14 more variables: list_date <chr>, price <dbl>, block_size <dbl>,
##   transfer_type <chr>, full_sale_price <dbl>, days_on_market <dbl>, sale_type <lgl>,
##   sale_record_source <chr>, building_size <lgl>, land_type <lgl>, property_type <lgl>,
##   purpose <chr>, unimproved_value <lgl>, unimproved_value_ratio <lgl>, and abbreviated variable
##   names ¹​division, ²​postcode, ³​bedrooms, ⁴​bathrooms, ⁵​ensuites, ⁶​carports, ⁷​contract_date,
##   ⁸​transfer_date
## ℹ Use `print(n = ...)` to see more rows, and `colnames()` to see all variable names
```
…
