…
    mutate(year = as.integer(year(contract_date))) |>
    select(division, unimproved_value, block_size, year) |>
    filter(
        if_all(everything(), ~ !is.na(.x) & .x > 0),
        block_size < 2000, unimproved_value < 2e6) %>%
    # Variable transformations
    mutate(
        # Year since 2019
        year_since = year - 2019L,
        # log-transformed UV
        log_UV = log(unimproved_value),
        # log-transformed block_size, standardised to the log of median value
        log_block_size_std = log(block_size) - log(850))
data_model
#> # A tibble: 3,439 × 7
#>    division unimproved_value block_size  year year_since log_UV
#>    <chr>               <int>      <int> <int>      <int>  <dbl>
#>  1 Chifley            360000        853  2011         -8   12.8
#>  2 Chifley            444000       1048  2011         -8   13.0
#>  3 Chifley            359000        695  2011         -8   12.8
#>  4 Chifley            341000        822  2011         -8   12.7
#>  5 Chifley            451000        760  2011         -8   13.0
#>  6 Chifley            410000        845  2011         -8   12.9
#>  7 Chifley            450000       1330  2011         -8   13.0
#>  8 Chifley            382000        857  2011         -8   12.9
#>  9 Chifley            366000       1020  2011         -8   12.8
#> 10 Chifley            486000        990  2011         -8   13.1
#> # ℹ 3,429 more rows
#> # ℹ 1 more variable: log_block_size_std <dbl>
```
…
