Modelling the unimproved value in the ACT's Woden Valley • allhomes
…
data_model <- data %>%
    select(division, unimproved_value, block_size, year) %>%
    filter(
        if_all(everything(), ~ !is.na(.x) & .x > 0),
        block_size < 2000, unimproved_value < 2e6) %>%
    # Variable transformations
    mutate(
        # Year since 2019
        year_since = year - 2019L,
        # log-transformed UV
        log_UV = log(unimproved_value),
        # log-transformed block_size, standardised to the log of median value
        log_block_size_std = log(block_size) - log(850))
data_model
#> # A tibble: 3,473 × 7
#>    division unimproved_value block_size  year year_since log_UV log_block_size…¹
#>    <chr>               <dbl>      <dbl> <int>      <int>  <dbl>            <dbl>
#>  1 Chifley            444000       1048  2011         -8   13.0           0.209 
#>  2 Chifley            451000        760  2011         -8   13.0          -0.112 
#>  3 Chifley            366000       1020  2011         -8   12.8           0.182 
#>  4 Chifley            486000        990  2011         -8   13.1           0.152 
#>  5 Chifley            451000        719  2011         -8   13.0          -0.167 
#>  6 Chifley            451000        743  2011         -8   13.0          -0.135 
#>  7 Chifley            450000       1330  2011         -8   13.0           0.448 
#>  8 Chifley            343000        889  2011         -8   12.7           0.0449
#>  9 Chifley            382000        796  2011         -8   12.9          -0.0656
#> 10 Chifley            359000        695  2011         -8   12.8          -0.201 
#> # … with 3,463 more rows, and abbreviated variable name ¹​log_block_size_std
…
